<Qucs Schematic 0.0.20>
<Properties>
  <View=0,0,800,800,1,0,0>
  <Grid=10,10,1>
  <DataSet=diode.dat>
  <DataDisplay=diode.dpl>
  <OpenDisplay=1>
  <Script=diode.m>
  <RunScript=0>
  <showFrame=0>
  <FrameText0=Title>
  <FrameText1=Drawn By:>
  <FrameText2=Date:>
  <FrameText3=Revision:>
</Properties>
<Symbol>
</Symbol>
<Components>
  <DIODE_SPICE D1 1 710 390 -26 15 0 0 "" 1 "" 0 "" 0 "" 0 "" 0>
</Components>
<Wires>
</Wires>
<Diagrams>
</Diagrams>
<Paintings>
</Paintings>
